\relax 
\providecommand\hyper@newdestlabel[2]{}
\providecommand\HyperFirstAtBeginDocument{\AtBeginDocument}
\HyperFirstAtBeginDocument{\ifx\hyper@anchor\@undefined
\global\let\oldcontentsline\contentsline
\gdef\contentsline#1#2#3#4{\oldcontentsline{#1}{#2}{#3}}
\global\let\oldnewlabel\newlabel
\gdef\newlabel#1#2{\newlabelxx{#1}#2}
\gdef\newlabelxx#1#2#3#4#5#6{\oldnewlabel{#1}{{#2}{#3}}}
\AtEndDocument{\ifx\hyper@anchor\@undefined
\let\contentsline\oldcontentsline
\let\newlabel\oldnewlabel
\fi}
\fi}
\global\let\hyper@last\relax 
\gdef\HyperFirstAtBeginDocument#1{#1}
\providecommand\HyField@AuxAddToFields[1]{}
\providecommand\HyField@AuxAddToCoFields[2]{}
\bibstyle{model1-num-names2}
\emailauthor{f.galvanin@ucl.ac.uk}{Federico Galvanin\corref {mycorrespondingauthor}}
\Newlabel{mycorrespondingauthor}{1}
\Newlabel{mymainaddress}{a}
\citation{asprey_statistical_2000}
\citation{asprey_statistical_2000,galvanin_model-based_2007}
\citation{bard_nonlinear_1974}
\citation{cortes_support-vector_1995,scholkopf_learning_2002}
\@writefile{toc}{\contentsline {section}{\numberline {1}Introduction}{2}{section.1}}
\citation{bard_nonlinear_1974}
\@writefile{toc}{\contentsline {section}{\numberline {2}Methodology}{3}{section.2}}
\newlabel{Eq:genericmodel}{{1}{3}{Methodology}{equation.2.1}{}}
\@writefile{lof}{\contentsline {figure}{\numberline {1}{\ignorespaces Proposed framework for model identification.\relax }}{4}{figure.caption.1}}
\providecommand*\caption@xref[2]{\@setref\relax\@undefined{#1}}
\newlabel{fig:methodology}{{1}{4}{Proposed framework for model identification.\relax }{figure.caption.1}{}}
\citation{scholkopf_learning_2002,smola_tutorial_2004}
\newlabel{Eq:likelihood}{{2}{5}{Methodology}{equation.2.2}{}}
\newlabel{Eq:MLE}{{3}{5}{Methodology}{equation.2.3}{}}
\citation{espie_optimal_1989,prasad_multiscale_2008,dirion_kinetic_2008,galvanin_joint_2016}
\@writefile{toc}{\contentsline {subsection}{\numberline {2.1}Model-Based Data Mining for Parameter Estimation}{6}{subsection.2.1}}
\newlabel{Eq:modifiedlikelihood}{{4}{6}{Model-Based Data Mining for Parameter Estimation}{equation.2.4}{}}
\newlabel{Eq:firstcondition}{{5}{6}{Model-Based Data Mining for Parameter Estimation}{equation.2.5}{}}
\newlabel{Eq:datamining}{{6}{7}{Model-Based Data Mining for Parameter Estimation}{equation.2.6}{}}
\newlabel{Eq:conditionsdatamining}{{7}{7}{Model-Based Data Mining for Parameter Estimation}{equation.2.7}{}}
\newlabel{Eq:dataminingproblem}{{8}{7}{Model-Based Data Mining for Parameter Estimation}{equation.2.8}{}}
\newlabel{Eq:demonstration}{{11}{8}{Model-Based Data Mining for Parameter Estimation}{equation.2.11}{}}
\newlabel{Eq:dataminingexp}{{12}{8}{Model-Based Data Mining for Parameter Estimation}{equation.2.12}{}}
\newlabel{Eq:conditionsdataminingexp}{{13}{8}{Model-Based Data Mining for Parameter Estimation}{equation.2.13}{}}
\newlabel{Eq:dataminingproblemexp}{{14}{8}{Model-Based Data Mining for Parameter Estimation}{equation.2.14}{}}
\citation{cortes_support-vector_1995}
\citation{scholkopf_learning_2002}
\@writefile{toc}{\contentsline {subsection}{\numberline {2.2}Identification of a region of model reliability}{9}{subsection.2.2}}
\newlabel{Eq:opthyperplane}{{16}{9}{Identification of a region of model reliability}{equation.2.16}{}}
\citation{bergstra_random_2012}
\newlabel{Eq:decisionfunction}{{17}{10}{Identification of a region of model reliability}{equation.2.17}{}}
\newlabel{Eq:gaussianrbf}{{18}{10}{Identification of a region of model reliability}{equation.2.18}{}}
\@writefile{toc}{\contentsline {subsection}{\numberline {2.3}Model-Based Design of Experiments for Parameter Precision}{10}{subsection.2.3}}
\citation{galvanin_optimal_2015,jensen_microreaction_2001}
\citation{mcmullen_integrated_2010,mcmullen_rapid_2011}
\citation{cao_oxidative_2005}
\@writefile{toc}{\contentsline {section}{\numberline {3}Case study}{11}{section.3}}
\@writefile{toc}{\contentsline {subsection}{\numberline {3.1}Experimental setup and data set}{11}{subsection.3.1}}
\@writefile{lof}{\contentsline {figure}{\numberline {2}{\ignorespaces Schematic representation of the microreactor chip and setup. The grey-coloured area in the microchannel represents the sputtered silver catalyst film. \relax }}{12}{figure.caption.2}}
\newlabel{fig:microreactor}{{2}{12}{Schematic representation of the microreactor chip and setup. The grey-coloured area in the microchannel represents the sputtered silver catalyst film. \relax }{figure.caption.2}{}}
\@writefile{toc}{\contentsline {subsection}{\numberline {3.2}Modelling assumptions}{12}{subsection.3.2}}
\citation{andreasen_simplified_2005}
\citation{schubert_mechanism_1994}
\newlabel{Eq:massbalance}{{19}{13}{Modelling assumptions}{equation.3.19}{}}
\newlabel{Eq:kineticmodel}{{20}{13}{Modelling assumptions}{equation.3.20}{}}
\@writefile{lot}{\contentsline {table}{\numberline {1}{\ignorespaces Instance for the kinetic parameters obtained from previous kinetic studies.\relax }}{14}{table.caption.3}}
\newlabel{tab:availableinstance}{{1}{14}{Instance for the kinetic parameters obtained from previous kinetic studies.\relax }{table.caption.3}{}}
\newlabel{Sec:Modelling_assumptions}{{3.2}{14}{Modelling assumptions}{table.caption.3}{}}
\@writefile{toc}{\contentsline {subsection}{\numberline {3.3}Methods}{14}{subsection.3.3}}
\citation{gproms}
\citation{scikit-learn}
\@writefile{toc}{\contentsline {section}{\numberline {4}Results}{16}{section.4}}
\@writefile{toc}{\contentsline {subsection}{\numberline {4.1}MBDM for Parameter Estimation}{16}{subsection.4.1}}
\@writefile{lot}{\contentsline {table}{\numberline {2}{\ignorespaces Parameter estimates and related statistics: $t$-value and sum of squared residuals $\chi ^2$; with conventional ML estimator and MBDM estimator.\relax }}{17}{table.caption.4}}
\newlabel{tab:parametererstimates}{{2}{17}{Parameter estimates and related statistics: $t$-value and sum of squared residuals $\chi ^2$; with conventional ML estimator and MBDM estimator.\relax }{table.caption.4}{}}
\@writefile{lof}{\contentsline {figure}{\numberline {3}{\ignorespaces Parity plot comparing measurements against model predictions: (a) if a conventional ML estimator is employed; (b) if MBDM is adopted. In (b) only experimental data with $\mathaccentV {hat}05E{\beta }=+1$ are reported. \relax }}{17}{figure.caption.6}}
\newlabel{fig:parityplot}{{3}{17}{Parity plot comparing measurements against model predictions: (a) if a conventional ML estimator is employed; (b) if MBDM is adopted. In (b) only experimental data with $\hat {\beta }=+1$ are reported. \relax }{figure.caption.6}{}}
\@writefile{lot}{\contentsline {table}{\numberline {3}{\ignorespaces Experimental conditions investigated in the catalytic microreactor and binary variables $\mathaccentV {hat}05E{\beta }_j$ computed by MBDM.\relax }}{18}{table.caption.5}}
\newlabel{tab:experimentalconditionsandbeta}{{3}{18}{Experimental conditions investigated in the catalytic microreactor and binary variables $\hat {\beta }_j$ computed by MBDM.\relax }{table.caption.5}{}}
\@writefile{toc}{\contentsline {subsection}{\numberline {4.2}Domain of expected model reliability}{18}{subsection.4.2}}
\@writefile{lof}{\contentsline {figure}{\numberline {4}{\ignorespaces Distribution of the normalised residuals: (a) if a conventional ML estimator is employed; (b) if MBDM is adopted. In (b) only residuals associated to the experimental data with $\mathaccentV {hat}05E{\beta }=+1$ are reported. \relax }}{19}{figure.caption.7}}
\newlabel{fig:residualplot}{{4}{19}{Distribution of the normalised residuals: (a) if a conventional ML estimator is employed; (b) if MBDM is adopted. In (b) only residuals associated to the experimental data with $\hat {\beta }=+1$ are reported. \relax }{figure.caption.7}{}}
\@writefile{lof}{\contentsline {figure}{\numberline {5}{\ignorespaces Score of decision functions identified training the SVM with two different sets of experimental conditions: (a) temperature and methanol fraction at the inlet; (b) temperature and water fraction at the inlet. Solid black lines represent contours at $I(\textbf  {u})=0$.\relax }}{20}{figure.caption.8}}
\newlabel{fig:reliability_region}{{5}{20}{Score of decision functions identified training the SVM with two different sets of experimental conditions: (a) temperature and methanol fraction at the inlet; (b) temperature and water fraction at the inlet. Solid black lines represent contours at $I(\textbf {u})=0$.\relax }{figure.caption.8}{}}
\@writefile{toc}{\contentsline {section}{\numberline {5}Conclusion}{20}{section.5}}
\gdef \LT@i {\LT@entry 
    {3}{47.37515pt}\LT@entry 
    {1}{322.60843pt}}
\bibdata{mybibfile,mybibfile_custom}
\bibcite{asprey_statistical_2000}{{1}{2000}{{Asprey and Macchietto}}{{}}}
\bibcite{galvanin_model-based_2007}{{2}{2007}{{Galvanin et~al.}}{{Galvanin, Macchietto, and Bezzo}}}
\bibcite{bard_nonlinear_1974}{{3}{1974}{{Bard}}{{}}}
\bibcite{cortes_support-vector_1995}{{4}{1995}{{Cortes and Vapnik}}{{}}}
\bibcite{scholkopf_learning_2002}{{5}{2002}{{Schölkopf and Smola}}{{}}}
\bibcite{smola_tutorial_2004}{{6}{2004}{{Smola and Schölkopf}}{{}}}
\bibcite{espie_optimal_1989}{{7}{1989}{{Espie and Macchietto}}{{}}}
\bibcite{prasad_multiscale_2008}{{8}{2008}{{Prasad and Vlachos}}{{}}}
\bibcite{dirion_kinetic_2008}{{9}{2008}{{Dirion et~al.}}{{Dirion, Reverte, and Cabassud}}}
\bibcite{galvanin_joint_2016}{{10}{2016}{{Galvanin et~al.}}{{Galvanin, Cao, Al-Rifai, Gavriilidis, and Dua}}}
\bibcite{bergstra_random_2012}{{11}{2012}{{Bergstra and Bengio}}{{}}}
\bibcite{galvanin_optimal_2015}{{12}{2015}{{Galvanin et~al.}}{{Galvanin, Cao, Al-Rifai, Dua, and Gavriilidis}}}
\bibcite{jensen_microreaction_2001}{{13}{2001}{{Jensen}}{{}}}
\bibcite{mcmullen_integrated_2010}{{14}{2010}{{McMullen and Jensen}}{{}}}
\bibcite{mcmullen_rapid_2011}{{15}{2011}{{McMullen and Jensen}}{{}}}
\bibcite{cao_oxidative_2005}{{16}{2005}{{Cao and Gavriilidis}}{{}}}
\bibcite{andreasen_simplified_2005}{{17}{2005}{{Andreasen et~al.}}{{Andreasen, Lynggaard, Stegelmann, and Stoltze}}}
\bibcite{schubert_mechanism_1994}{{18}{1994}{{Schubert et~al.}}{{Schubert, Tegtmeyer, and Schlögl}}}
\bibcite{gproms}{{19}{2017}{{gpr}}{{}}}
\bibcite{scikit-learn}{{20}{2011}{{Pedregosa et~al.}}{{Pedregosa, Varoquaux, Gramfort, Michel, Thirion, Grisel, Blondel, Prettenhofer, Weiss, Dubourg, Vanderplas, Passos, Cournapeau, Brucher, Perrot, and Duchesnay}}}
\@writefile{toc}{\contentsline {section}{\numberline {Appendix A}Conjecture proof}{27}{appendix.A}}
\newlabel{Eq:datamining_appendix}{{A.1}{27}{Conjecture proof}{equation.A.1}{}}
\newlabel{Eq:conditionsdatamining_appendix}{{A.2}{27}{Conjecture proof}{equation.A.2}{}}
\newlabel{Eq:likelihood_appendix}{{A.3}{27}{Conjecture proof}{equation.A.3}{}}
\newlabel{Eq:demonstration_appendix}{{A.4}{27}{Conjecture proof}{equation.A.4}{}}
